{
  "name": "landcareresearch-pgbouncer",
  "version": "0.2.5",
  "author": "Landcare Research",
  "summary": "Deploys pgbouncer",
  "license": "GPL-3.0+",
  "source": "git://bitbucket.org/landcareresearch/puppet-pgbouncer.git",
  "project_page": "https://bitbucket.org/landcareresearch/puppet-pgbouncer",
  "issues_url": "https://bitbucket.org/landcareresearch/puppet-pgbouncer/issues",
  "dependencies": [],
  "operatingsystem_support": [
    {
      "operatingsystem": "Ubuntu",
      "operatingsystemrelease": [
        "12.04",
        "14.04",
        "15.04"
      ]
    },
    {
      "operatingsystem": "Centos",
      "operatingsystemrelease": [
        "7.0"
      ]
    }
  ]
}

